Programming with dplyr
…
Different input and output variable

The next challenge is to vary the name of the output variables:

mutate(df, mean_a = mean(a), sum_a = sum(a))
#> # A tibble: 5 x 6
#>      g1    g2     a     b mean_a sum_a
#>   <dbl> <dbl> <int> <int>  <dbl> <int>
#> 1     1     1     1     3      3    15
#> 2     1     2     4     2      3    15
#> 3     2     1     2     1      3    15
#> 4     2     2     5     4      3    15
#> # ... with 1 more row
mutate(df, mean_b = mean(b), sum_b = sum(b))
#> # A tibble: 5 x 6
#>      g1    g2     a     b mean_b sum_b
#>   <dbl> <dbl> <int> <int>  <dbl> <int>
#> 1     1     1     1     3      3    15
#> 2     1     2     4     2      3    15
#> 3     2     1     2     1      3    15
#> 4     2     2     5     4      3    15
#> # ... with 1 more row
…
!! mean_name = mean(!! expr) isn’t valid R code, so we need to use the := helper provided by rlang.

my_mutate <- function(df, expr) {
  expr <- enquo(expr)
  mean_name <- paste0("mean_", quo_name(expr))
  sum_name <- paste0("sum_", quo_name(expr))

  mutate(df,
    !! mean_name := mean(!! expr),
    !! sum_name := sum(!! expr)
  )
}

my_mutate(df, a)
#> # A tibble: 5 x 6
#>      g1    g2     a     b mean_a sum_a
#>   <dbl> <dbl> <int> <int>  <dbl> <int>
#> 1     1     1     1     3      3    15
#> 2     1     2     4     2      3    15
#> 3     2     1     2     1      3    15
#> 4     2     2     5     4      3    15
#> # ... with 1 more row
…
Any number of user-supplied expressions

If you want to take an arbitrary number of user supplied expressions, use .... This is most often useful when you want to give the user full control over a single part of the pipeline, like a group_by() or a mutate().

my_summarise <- function(.data, ...) {
  .data %>%
    group_by(...) %>%
    summarise(mass = mean(mass, na.rm = TRUE), height = mean(height, na.rm = TRUE))
}

starwars %>% my_summarise(homeworld)
#> `summarise()` ungrouping output (override with `.groups` argument)
#> # A tibble: 49 x 3
#>   homeworld    mass height
#>   <chr>       <dbl>  <dbl>
#> 1 Alderaan       64   176.
#> 2 Aleen Minor    15    79 
#> 3 Bespin         79   175 
#> 4 Bestine IV    110   180 
#> # … with 45 more rows
starwars %>% my_summarise(sex, gender)
#> `summarise()` regrouping output by 'sex' (override with `.groups` argument)
#> # A tibble: 6 x 4
#> # Groups:   sex [5]
#>   sex            gender      mass height
#>   <chr>          <chr>      <dbl>  <dbl>
#> 1 female         feminine    54.7   169.
#> 2 hermaphroditic masculine 1358     175 
#> 3 male           masculine   81.0   179.
#> 4 none           feminine   NaN      96 
#> # … with 2 more rows
When you use ... in this way, make sure that any other arguments start with . to reduce the chances of argument clashes; see https://design.tidyverse.org/dots-prefix.html for more details.

Transforming user-supplied variables

If you want the user to provide a set of data-variables that are then transformed, use across():

my_summarise <- function(data, summary_vars) {
  data %>%
    summarise(across({{ summary_vars }}, ~ mean(., na.rm = TRUE)))
}
starwars %>% 
  group_by(species) %>% 
  my_summarise(c(mass, height))
#> `summarise()` ungrouping output (override with `.groups` argument)
#> # A tibble: 38 x 3
#>   species   mass height
#>   <chr>    <dbl>  <dbl>
#> 1 Aleena      15     79
#> 2 Besalisk   102    198
#> 3 Cerean      82    198
#> 4 Chagrian   NaN    196
#> # … with 34 more rows
…
