Two-table verbs
…
=======

library("nycflights13")
# Drop unimportant variables so it's easier to understand the join results.
flights2 <- flights %>% select(year:day, hour, origin, dest, tailnum, carrier)

flights2 %>% 
  left_join(airlines)
#> Joining, by = "carrier"
#> # A tibble: 336,776 x 9
#>    year month   day  hour origin dest  tailnum carrier name                  
#>   <int> <int> <int> <dbl> <chr>  <chr> <chr>   <chr>   <chr>                 
#> 1  2013     1     1     5 EWR    IAH   N14228  UA      United Air Lines Inc. 
#> 2  2013     1     1     5 LGA    IAH   N24211  UA      United Air Lines Inc. 
#> 3  2013     1     1     5 JFK    MIA   N619AA  AA      American Airlines Inc.
#> 4  2013     1     1     5 JFK    BQN   N804JB  B6      JetBlue Airways       
#> 5  2013     1     1     6 LGA    ATL   N668DN  DL      Delta Air Lines Inc.  
#> # … with 336,771 more rows
…
=======

flights2 %>% left_join(weather)
#> Joining, by = c("year", "month", "day", "hour", "origin")
#> # A tibble: 336,776 x 18
#>    year month   day  hour origin dest  tailnum carrier  temp  dewp humid
#>   <int> <int> <int> <dbl> <chr>  <chr> <chr>   <chr>   <dbl> <dbl> <dbl>
#> 1  2013     1     1     5 EWR    IAH   N14228  UA       39.0  28.0  64.4
#> 2  2013     1     1     5 LGA    IAH   N24211  UA       39.9  25.0  54.8
#> 3  2013     1     1     5 JFK    MIA   N619AA  AA       39.0  27.0  61.6
#> 4  2013     1     1     5 JFK    BQN   N804JB  B6       39.0  27.0  61.6
#> 5  2013     1     1     6 LGA    ATL   N668DN  DL       39.9  25.0  54.8
#> # … with 336,771 more rows, and 7 more variables: wind_dir <dbl>,
#> #   wind_speed <dbl>, wind_gust <dbl>, precip <dbl>, pressure <dbl>,
#> #   visib <dbl>, time_hour <dttm>

A character vector, by = "x". Like a natural join, but uses only some of the common variables. For example, flights and planes have year columns, but they mean different things so we only want to join by tailnum.

flights2 %>% left_join(planes, by = "tailnum")
#> # A tibble: 336,776 x 16
#>   year.x month   day  hour origin dest  tailnum carrier year.y type 
#>    <int> <int> <int> <dbl> <chr>  <chr> <chr>   <chr>    <int> <chr>
#> 1   2013     1     1     5 EWR    IAH   N14228  UA        1999 Fixe…
#> 2   2013     1     1     5 LGA    IAH   N24211  UA        1998 Fixe…
#> 3   2013     1     1     5 JFK    MIA   N619AA  AA        1990 Fixe…
#> 4   2013     1     1     5 JFK    BQN   N804JB  B6        2012 Fixe…
#> 5   2013     1     1     6 LGA    ATL   N668DN  DL        1991 Fixe…
#> # … with 336,771 more rows, and 6 more variables: manufacturer <chr>,
#> #   model <chr>, engines <int>, seats <int>, speed <int>, engine <chr>

Note that the year columns in the output are disambiguated with a suffix.

A named character vector: by = c("x" = "a"). This will match variable x in table x to variable a in table y. The variables from use will be used in the output.

Each flight has an origin and destination airport, so we need to specify which one we want to join to:

flights2 %>% left_join(airports, c("dest" = "faa"))
#> # A tibble: 336,776 x 15
#>    year month   day  hour origin dest  tailnum carrier name    lat   lon   alt
#>   <int> <int> <int> <dbl> <chr>  <chr> <chr>   <chr>   <chr> <dbl> <dbl> <dbl>
#> 1  2013     1     1     5 EWR    IAH   N14228  UA      Geor…  30.0 -95.3    97
#> 2  2013     1     1     5 LGA    IAH   N24211  UA      Geor…  30.0 -95.3    97
#> 3  2013     1     1     5 JFK    MIA   N619AA  AA      Miam…  25.8 -80.3     8
#> 4  2013     1     1     5 JFK    BQN   N804JB  B6      <NA>   NA    NA      NA
#> 5  2013     1     1     6 LGA    ATL   N668DN  DL      Hart…  33.6 -84.4  1026
#> # … with 336,771 more rows, and 3 more variables: tz <dbl>, dst <chr>,
#> #   tzone <chr>
flights2 %>% left_join(airports, c("origin" = "faa"))
#> # A tibble: 336,776 x 15
#>    year month   day  hour origin dest  tailnum carrier name    lat   lon   alt
#>   <int> <int> <int> <dbl> <chr>  <chr> <chr>   <chr>   <chr> <dbl> <dbl> <dbl>
#> 1  2013     1     1     5 EWR    IAH   N14228  UA      Newa…  40.7 -74.2    18
#> 2  2013     1     1     5 LGA    IAH   N24211  UA      La G…  40.8 -73.9    22
#> 3  2013     1     1     5 JFK    MIA   N619AA  AA      John…  40.6 -73.8    13
#> 4  2013     1     1     5 JFK    BQN   N804JB  B6      John…  40.6 -73.8    13
#> 5  2013     1     1     6 LGA    ATL   N668DN  DL      La G…  40.8 -73.9    22
#> # … with 336,771 more rows, and 3 more variables: tz <dbl>, dst <chr>,
#> #   tzone <chr>
…
>>>>>>> ddff10c8c1a385735ed59fadb33c4b79e43db9ce

semi_join(x, y) keeps all observations in x that have a match in y.

anti_join(x, y) drops all observations in x that have a match in y.

These are most useful for diagnosing join mismatches. For example, there are many flights in the nycflights13 dataset that don’t have a matching tail number in the planes table:

<<<<<<< HEAD

library("nycflights13")
flights %>% 
  anti_join(planes, by = "tailnum") %>% 
  count(tailnum, sort = TRUE)
#> # A tibble: 722 x 2
#>   tailnum     n
#>   <chr>   <int>
#> 1 <NA>     2512
#> 2 N725MQ    575
#> 3 N722MQ    513
#> 4 N723MQ    507
#> 5 N713MQ    483
#> # ... with 717 more rows
…
=======

library("nycflights13")
flights %>% 
  anti_join(planes, by = "tailnum") %>% 
  count(tailnum, sort = TRUE)
#> # A tibble: 722 x 2
#>   tailnum     n
#>   <chr>   <int>
#> 1 <NA>     2512
#> 2 N725MQ    575
#> 3 N722MQ    513
#> 4 N723MQ    507
#> 5 N713MQ    483
#> # … with 717 more rows
…
